…
$birds
# A tibble: 49,019 × 26
   bird_observation_id record_id species_common_name      species_scientific_n…¹
                 <dbl>     <dbl> <chr>                    <chr>                 
 1                   1   1083001 Royal / Wandering albat… Diomedea epomophora /…
 2                   2   1083001 Black-browed albatross … Diomedea impavida / m…
 3                   3   1083001 Cape petrel              Daption capense       
 4                   4   1083001 Fairy prion              Pachyptila turtur     
 5                   5   1083001 Sooty shearwater         Puffinus griseus      
 6                   6   1084001 Royal albatross sensu l… Diomedea epomophora /…
 7                   7   1084001 Black-browed albatross … Diomedea impavida / m…
 8                   8   1084001 Sooty shearwater         Puffinus griseus      
 9                   9   1084002 Royal albatross sensu l… Diomedea epomophora /…
10                  10   1084002 Black-browed albatross … Diomedea impavida / m…
# ℹ 49,009 more rows
# ℹ abbreviated name: ¹​species_scientific_name
# ℹ 22 more variables: species_abbreviation <chr>, age <chr>,
#   wan_plumage_phase <chr>, plumage_phase <chr>, sex <lgl>, count <dbl>,
#   n_feeding <dbl>, feeding <lgl>, n_sitting_on_water <dbl>,
#   sitting_on_water <lgl>, n_sitting_on_ice <dbl>, sitting_on_ice <lgl>,
#   sitting_on_ship <lgl>, in_hand <lgl>, n_flying_past <dbl>, …

$sea_states
# A tibble: 7 × 4
  sea_state_class sea_state_description wave_meters_min wave_meters_max
            <dbl> <chr>                           <dbl>           <dbl>
1               0 calm, glassy                      0               0  
2               1 calm, rippled                     0               0.1
3               2 smooth                            0.1             0.5
4               3 slight                            0.5             1.2
5               4 moderate                          1.3             2.5
6               5 rough                             2.5             4  
7               6 very rough                        4               6  

$ships
# A tibble: 12,310 × 21
   record_id date       time   latitude longitude hemisphere activity      speed
       <dbl> <date>     <time>    <dbl>     <dbl> <chr>      <chr>         <dbl>
 1   1083001 1975-10-15 14:00     -45.9      165. E          steaming, sa…  15  
 2   1084001 1975-11-03 13:10     -35.5      125  E          steaming, sa…  14  
 3   1084002 1975-11-04 14:20     -37.7      132. E          steaming, sa…  14.5
 4   1084003 1975-11-08 16:15     -40        162  E          steaming, sa…  14.6
 5   1086001 1975-11-16 12:30     -36.2      175. E          steaming, sa…  15  
 6   1086002 1975-11-16 15:30     -35.4      175. E          steaming, sa…  15  
 7   1086003 1975-11-17 14:30     -35.2      168  E          steaming, sa…  15  
 8   1086004 1975-11-17 16:30     -35.3      167. E          steaming, sa…  15  
 9   1086005 1975-11-18 14:30     -36.5      161  E          steaming, sa…  15  
10   1086006 1975-11-18 16:30     -36.3      160. E          steaming, sa…  15  
# ℹ 12,300 more rows
# ℹ 13 more variables: direction <dbl>, cloud_cover <chr>, precipitation <chr>,
#   wind_speed_class <dbl>, wind_direction <dbl>, air_temperature <dbl>,
#   pressure <dbl>, sea_state_class <dbl>, sea_surface_temperature <dbl>,
#   depth <dbl>, observer <chr>, census_method <chr>, season <chr>
```
…
rf_res <- tune_grid(
  rf_wf,
  resamples = cv_folds,
  grid = rf_grid,
  metrics = reg_metrics,
  control = control_grid(save_pred = TRUE)
)

collect_metrics(rf_res)
```

::: {.cell-output .cell-output-stdout}

```
# A tibble: 48 × 8
    mtry min_n .metric .estimator  mean     n std_err .config         
   <int> <int> <chr>   <chr>      <dbl> <int>   <dbl> <chr>           
 1     3     2 mae     standard   0.957     5 0.00735 pre0_mod01_post0
 2     3     2 rmse    standard   1.33      5 0.00959 pre0_mod01_post0
 3     3     2 rsq     standard   0.222     5 0.0105  pre0_mod01_post0
 4     3     8 mae     standard   0.959     5 0.00714 pre0_mod02_post0
 5     3     8 rmse    standard   1.33      5 0.00931 pre0_mod02_post0
 6     3     8 rsq     standard   0.220     5 0.0100  pre0_mod02_post0
 7     3    14 mae     standard   0.962     5 0.00703 pre0_mod03_post0
 8     3    14 rmse    standard   1.33      5 0.00945 pre0_mod03_post0
 9     3    14 rsq     standard   0.216     5 0.00994 pre0_mod03_post0
10     3    20 mae     standard   0.964     5 0.00720 pre0_mod04_post0
# ℹ 38 more rows
```
…
```

```


:::

```{.r .cell-code}
collect_metrics(tree_res)
```

::: {.cell-output .cell-output-stdout}

```
# A tibble: 192 × 9
   cost_complexity tree_depth min_n .metric .estimator   mean     n std_err
             <dbl>      <int> <int> <chr>   <chr>       <dbl> <int>   <dbl>
 1    0.0000000001          1     2 mae     standard   1.08       5 0.00723
 2    0.0000000001          1     2 rmse    standard   1.45       5 0.00985
 3    0.0000000001          1     2 rsq     standard   0.0425     5 0.00284
 4    0.0000000001          1    14 mae     standard   1.08       5 0.00723
 5    0.0000000001          1    14 rmse    standard   1.45       5 0.00985
 6    0.0000000001          1    14 rsq     standard   0.0425     5 0.00284
 7    0.0000000001          1    27 mae     standard   1.08       5 0.00723
 8    0.0000000001          1    27 rmse    standard   1.45       5 0.00985
 9    0.0000000001          1    27 rsq     standard   0.0425     5 0.00284
10    0.0000000001          1    40 mae     standard   1.08       5 0.00723
# ℹ 182 more rows
# ℹ 1 more variable: .config <chr>
```
…
